<?xml version="1.0" encoding="UTF-8" standalone="no"?>
<!-- Created with Inkscape (http://www.inkscape.org/) -->

<svg
   xmlns:dc="http://purl.org/dc/elements/1.1/"
   xmlns:cc="http://creativecommons.org/ns#"
   xmlns:rdf="http://www.w3.org/1999/02/22-rdf-syntax-ns#"
   xmlns:svg="http://www.w3.org/2000/svg"
   xmlns="http://www.w3.org/2000/svg"
   xmlns:sodipodi="http://sodipodi.sourceforge.net/DTD/sodipodi-0.dtd"
   xmlns:inkscape="http://www.inkscape.org/namespaces/inkscape"
   width="21.07398"
   height="28.145561"
   id="svg6458"
   sodipodi:version="0.32"
   inkscape:version="0.91 r13725"
   version="1.0"
   sodipodi:docname="padlock.svg"
   inkscape:output_extension="org.inkscape.output.svg.inkscape">
  <defs
     id="defs6460">
    <inkscape:perspective
       sodipodi:type="inkscape:persp3d"
       inkscape:vp_x="0 : 526.18109 : 1"
       inkscape:vp_y="0 : 1000 : 0"
       inkscape:vp_z="744.09448 : 526.18109 : 1"
       inkscape:persp3d-origin="372.04724 : 350.78739 : 1"
       id="perspective6466" />
  </defs>
  <sodipodi:namedview
     id="base"
     pagecolor="#ffffff"
     bordercolor="#666666"
     borderopacity="1.0"
     gridtolerance="10000"
     guidetolerance="10"
     objecttolerance="10"
     inkscape:pageopacity="0.0"
     inkscape:pageshadow="2"
     inkscape:zoom="4.6010808"
     inkscape:cx="-56.277418"
     inkscape:cy="38.367172"
     inkscape:document-units="px"
     inkscape:current-layer="layer1"
     showgrid="false"
     inkscape:window-width="1920"
     inkscape:window-height="1152"
     inkscape:window-x="0"
     inkscape:window-y="0"
     inkscape:window-maximized="1" />
  <metadata
     id="metadata6463">
    <rdf:RDF>
      <cc:Work
         rdf:about="">
        <dc:format>image/svg+xml</dc:format>
        <dc:type
           rdf:resource="http://purl.org/dc/dcmitype/StillImage" />
      </cc:Work>
    </rdf:RDF>
  </metadata>
  <g
     inkscape:label="Layer 1"
     inkscape:groupmode="layer"
     id="layer1"
     transform="translate(-412.32015,-352.57512)">
    <g
       id="g4203"
       transform="matrix(0.33014236,0,0,0.33014236,276.19579,236.17512)">
      <g
         transform="matrix(3.0638263,0,0,3.0638263,-850.95718,-727.65382)"
         id="g4187">
        <g
           id="g4171">
          <path
             inkscape:transform-center-y="-5.3804227"
             inkscape:transform-center-x="6.6579951"
             id="path4826"
             d="m 429.77743,363.43956 0,0 0,-4.66854 c 0,-2.93133 -2.30813,-5.27372 -5.18727,-5.27372 l -3.45818,0 0,0 c -2.87914,0 -5.21607,2.34239 -5.21608,5.27372 l 0,4.66854 0,0"
             style="opacity:1;fill:none;fill-opacity:1;stroke:#000000;stroke-width:1.84436142;stroke-miterlimit:4;stroke-dasharray:none;stroke-opacity:1"
             inkscape:connector-curvature="0" />
          <path
             id="rect4008"
             d="m 412.81061,363.43606 20.09306,0 0,16.79416 -20.09306,0 0,-16.79416 z"
             style="opacity:1;fill:none;fill-opacity:1;stroke:#000000;stroke-width:0.98092026;stroke-miterlimit:4;stroke-opacity:1"
             inkscape:connector-curvature="0" />
        </g>
        <g
           id="g4175"
           transform="translate(-0.02917727,0)">
          <g
             transform="matrix(0.9221807,0,0,0.9221807,32.87687,36.390592)"
             id="g4832"
             style="stroke:#000000">
            <circle
               style="opacity:1;fill:#000000;fill-opacity:1;stroke:#000000;stroke-width:2;stroke-miterlimit:4;stroke-dasharray:none;stroke-opacity:1"
               id="path4828"
               transform="translate(0.8125685,0)"
               cx="426.49567"
               cy="361.60049"
               r="1.5752379" />
            <path
               style="fill:none;fill-rule:evenodd;stroke:#000000;stroke-width:2;stroke-linecap:round;stroke-linejoin:miter;stroke-miterlimit:4;stroke-dasharray:none;stroke-opacity:1"
               d="m 427.15201,362.66898 0,3.77014"
               id="path4830"
               inkscape:connector-curvature="0" />
          </g>
          <g
             transform="matrix(0.9221807,0,0,0.9221807,24.78495,36.390592)"
             id="g4832-3"
             style="stroke:#000000">
            <circle
               style="opacity:1;fill:#000000;fill-opacity:1;stroke:#000000;stroke-width:2;stroke-miterlimit:4;stroke-dasharray:none;stroke-opacity:1"
               id="path4828-6"
               transform="translate(0.8125685,0)"
               cx="426.49567"
               cy="361.60049"
               r="1.5752379" />
            <path
               style="fill:none;fill-rule:evenodd;stroke:#000000;stroke-width:2;stroke-linecap:round;stroke-linejoin:miter;stroke-miterlimit:4;stroke-dasharray:none;stroke-opacity:1"
               d="m 427.15201,362.66898 0,3.77014"
               id="path4830-7"
               inkscape:connector-curvature="0" />
          </g>
        </g>
      </g>
      <text
         sodipodi:linespacing="125%"
         id="text4183"
         y="408.54025"
         x="428.83801"
         style="font-style:normal;font-variant:normal;font-weight:normal;font-stretch:normal;font-size:10px;line-height:125%;font-family:'Bitstream Charter';-inkscape-font-specification:'Bitstream Charter';text-align:start;letter-spacing:0px;word-spacing:0px;text-anchor:start;fill:#ffffff;fill-opacity:1;stroke:none;stroke-width:1px;stroke-linecap:butt;stroke-linejoin:miter;stroke-opacity:1"
         xml:space="preserve"><tspan
           y="408.54025"
           x="428.83801"
           id="tspan4185"
           sodipodi:role="line">C</tspan></text>
      <text
         sodipodi:linespacing="125%"
         id="text4199"
         y="409.40958"
         x="452.52808"
         style="font-style:normal;font-variant:normal;font-weight:normal;font-stretch:normal;font-size:12.5px;line-height:125%;font-family:'Bitstream Charter';-inkscape-font-specification:'Bitstream Charter';text-align:start;letter-spacing:0px;word-spacing:0px;text-anchor:start;fill:#ffffff;fill-opacity:1;stroke:none;stroke-width:1px;stroke-linecap:butt;stroke-linejoin:miter;stroke-opacity:1"
         xml:space="preserve"><tspan
           y="409.40958"
           x="452.52808"
           id="tspan4201"
           sodipodi:role="line">T</tspan></text>
    </g>
  </g>
</svg>
